{"err_no":0,"err_msg":"success","data":[{"article_id":"6934860945227251748","article_info":{"article_id":"6934860945227251748","user_id":"1574156384091320","category_id":"6809637771511070734","tag_ids":[6809640375880253447,6809641083107016712],"visible_level":0,"link_url":"","cover_image":"https://p3-juejin.byteimg.com/tos-cn-i-k3u1fbpfcp/229152cecd704e499aeec26fc5f47c4d~tplv-k3u1fbpfcp-watermark.image","is_gfw":0,"title":"小心你的个人信息——GitHub 热点速览 v.21.09","brief_content":"浏览过必有痕迹，有什么可以抹去社交痕迹的方法呢？social-analyzer 是一个可在 350+ 网站分析特定用户资料的工具，你可以用它来“人肉”他人，反之，你也可以用它来保护自己的用户资料：先搜为敬，再根据搜到的个人资料做下一步的资料整理，也不失为一个好的用法。这种神奇的…","is_english":0,"is_original":1,"user_index":9.185504846315268,"original_type":0,"original_author":"","content":"","ctime":"1614648180","mtime":"1614648192","rtime":"1614648192","draft_id":"6934629231347367943","view_count":513,"collect_count":0,"digg_count":5,"comment_count":0,"hot_index":30,"is_hot":0,"rank_index":2.33289359,"status":2,"verify_status":1,"audit_status":2,"mark_content":""},"author_user_info":{"user_id":"1574156384091320","user_name":"HelloGitHub","company":"公众号：HelloGitHub","job_title":"","avatar_large":"https://user-gold-cdn.xitu.io/2019/3/28/169c31b06dcd6e90?w=200\u0026h=200\u0026f=png\u0026s=7767","level":5,"description":"分享 GitHub 上有趣、入门级的开源项目（目前在重构官网，需要前端和设计师）","followee_count":31,"follower_count":9459,"post_article_count":281,"digg_article_count":262,"got_digg_count":7602,"got_view_count":486285,"post_shortmsg_count":784,"digg_shortmsg_count":216,"isfollowed":false,"favorable_author":1,"power":11619,"study_point":0,"university":{"university_id":"0","name":"","logo":""},"major":{"major_id":"0","parent_id":"0","name":""},"student_status":0,"select_event_count":0,"select_online_course_count":0,"identity":0,"is_select_annual":false,"select_annual_rank":0,"annual_list_type":0},"category":{"category_id":"6809637771511070734","category_name":"开发工具","category_url":"freebie","rank":6,"ctime":1457483920,"mtime":1432503202,"show_type":3},"tags":[{"id":2546502,"tag_id":"6809640375880253447","tag_name":"GitHub","color":"#616161","icon":"https://lc-gold-cdn.xitu.io/0d614af263aa63aa6a77.png","back_ground":"","show_navi":0,"ctime":1432234558,"mtime":1614668267,"id_type":9,"tag_alias":"","post_article_count":9281,"concern_user_count":364107},{"id":2547014,"tag_id":"6809641083107016712","tag_name":"开源库资讯","color":"","icon":"https://user-gold-cdn.xitu.io/152713444205566dc0b9fb8a213cba8cf32db3de6931b.jpg","back_ground":"","show_navi":0,"ctime":1514876317,"mtime":1614648180,"id_type":9,"tag_alias":"","post_article_count":454,"concern_user_count":4261}],"user_interact":{"id":6934860945227251748,"omitempty":2,"user_id":0,"is_digg":false,"is_follow":false,"is_collect":false},"org":{"org_info":null,"org_user":null,"is_followed":false}},{"article_id":"6934478114579808270","article_info":{"article_id":"6934478114579808270","user_id":"1574156384091320","category_id":"6809637771511070734","tag_ids":[6809640375880253447,6809641083107016712],"visible_level":0,"link_url":"","cover_image":"https://p9-juejin.byteimg.com/tos-cn-i-k3u1fbpfcp/db0104ed3e6f444a98d29c8e9ab84246~tplv-k3u1fbpfcp-watermark.image","is_gfw":0,"title":"更新啦！第 59 期《HelloGitHub》开源月刊","brief_content":"分享 GitHub 上有趣、入门级的开源项目。 这是一个面向编程新手、热爱编程、对开源社区感兴趣 人群的月刊，月刊的内容包括：各种编程语言的项目、让生活变得更美好的工具、书籍、学习笔记、教程等，这些开源项目大多都是非常容易上手，而且非常 Cool。主要是希望大家能动手用起来，加…","is_english":0,"is_original":1,"user_index":9.18815802393562,"original_type":0,"original_author":"","content":"","ctime":"1614560008","mtime":"1614560391","rtime":"1614560391","draft_id":"6934111132076474375","view_count":791,"collect_count":0,"digg_count":10,"comment_count":1,"hot_index":50,"is_hot":0,"rank_index":0.34378718,"status":2,"verify_status":1,"audit_status":2,"mark_content":""},"author_user_info":{"user_id":"1574156384091320","user_name":"HelloGitHub","company":"公众号：HelloGitHub","job_title":"","avatar_large":"https://user-gold-cdn.xitu.io/2019/3/28/169c31b06dcd6e90?w=200\u0026h=200\u0026f=png\u0026s=7767","level":5,"description":"分享 GitHub 上有趣、入门级的开源项目（目前在重构官网，需要前端和设计师）","followee_count":31,"follower_count":9459,"post_article_count":281,"digg_article_count":262,"got_digg_count":7602,"got_view_count":486285,"post_shortmsg_count":784,"digg_shortmsg_count":216,"isfollowed":false,"favorable_author":1,"power":11619,"study_point":0,"university":{"university_id":"0","name":"","logo":""},"major":{"major_id":"0","parent_id":"0","name":""},"student_status":0,"select_event_count":0,"select_online_course_count":0,"identity":0,"is_select_annual":false,"select_annual_rank":0,"annual_list_type":0},"category":{"category_id":"6809637771511070734","category_name":"开发工具","category_url":"freebie","rank":6,"ctime":1457483920,"mtime":1432503202,"show_type":3},"tags":[{"id":2546502,"tag_id":"6809640375880253447","tag_name":"GitHub","color":"#616161","icon":"https://lc-gold-cdn.xitu.io/0d614af263aa63aa6a77.png","back_ground":"","show_navi":0,"ctime":1432234558,"mtime":1614668267,"id_type":9,"tag_alias":"","post_article_count":9281,"concern_user_count":364107},{"id":2547014,"tag_id":"6809641083107016712","tag_name":"开源库资讯","color":"","icon":"https://user-gold-cdn.xitu.io/152713444205566dc0b9fb8a213cba8cf32db3de6931b.jpg","back_ground":"","show_navi":0,"ctime":1514876317,"mtime":1614648180,"id_type":9,"tag_alias":"","post_article_count":454,"concern_user_count":4261}],"user_interact":{"id":6934478114579808270,"omitempty":2,"user_id":0,"is_digg":false,"is_follow":false,"is_collect":false},"org":{"org_info":null,"org_user":null,"is_followed":false}},{"article_id":"6933372637271818253","article_info":{"article_id":"6933372637271818253","user_id":"1574156384091320","category_id":"6809637776263217160","tag_ids":[6809640419505209358],"visible_level":0,"link_url":"","cover_image":"https://p6-juejin.byteimg.com/tos-cn-i-k3u1fbpfcp/c112d1d2bd36435d969978c59168f3dd~tplv-k3u1fbpfcp-watermark.image","is_gfw":0,"title":"水墨屏开发设备，旧 Kindle 改造而成","brief_content":"我想有个用于（开发）未来项目的水墨屏，刚好我又买了一个带树莓派 “hat” 的小玩意。就这样，灵光一闪的我想到旧 Amazon Kindle 电子书阅读器可以变废为宝。 我之前有过使用 Kindle 的经验：我为它移植过一个 Infocom 解析器 和一个 Manga 漫画阅读…","is_english":0,"is_original":1,"user_index":9.188263015527774,"original_type":0,"original_author":"","content":"","ctime":"1614301662","mtime":"1614302959","rtime":"1614302959","draft_id":"6933115767344857101","view_count":1276,"collect_count":0,"digg_count":4,"comment_count":2,"hot_index":69,"is_hot":0,"rank_index":0.07539285,"status":2,"verify_status":1,"audit_status":2,"mark_content":""},"author_user_info":{"user_id":"1574156384091320","user_name":"HelloGitHub","company":"公众号：HelloGitHub","job_title":"","avatar_large":"https://user-gold-cdn.xitu.io/2019/3/28/169c31b06dcd6e90?w=200\u0026h=200\u0026f=png\u0026s=7767","level":5,"description":"分享 GitHub 上有趣、入门级的开源项目（目前在重构官网，需要前端和设计师）","followee_count":31,"follower_count":9459,"post_article_count":281,"digg_article_count":262,"got_digg_count":7602,"got_view_count":486285,"post_shortmsg_count":784,"digg_shortmsg_count":216,"isfollowed":false,"favorable_author":1,"power":11619,"study_point":0,"university":{"university_id":"0","name":"","logo":""},"major":{"major_id":"0","parent_id":"0","name":""},"student_status":0,"select_event_count":0,"select_online_course_count":0,"identity":0,"is_select_annual":false,"select_annual_rank":0,"annual_list_type":0},"category":{"category_id":"6809637776263217160","category_name":"代码人生","category_url":"career","rank":7,"ctime":1553759544,"mtime":1553759548,"show_type":3},"tags":[{"id":2546535,"tag_id":"6809640419505209358","tag_name":"开源","color":"#6EBD68","icon":"https://lc-gold-cdn.xitu.io/553ecacd498946a9a6d9.png","back_ground":"","show_navi":0,"ctime":1435972427,"mtime":1614668427,"id_type":9,"tag_alias":"","post_article_count":5491,"concern_user_count":206703}],"user_interact":{"id":6933372637271818253,"omitempty":2,"user_id":0,"is_digg":false,"is_follow":false,"is_collect":false},"org":{"org_info":null,"org_user":null,"is_followed":false}},{"article_id":"6933000523528273933","article_info":{"article_id":"6933000523528273933","user_id":"1574156384091320","category_id":"6809637769959178254","tag_ids":[6809640445233070094,6809640791858741262],"visible_level":0,"link_url":"","cover_image":"https://p1-juejin.byteimg.com/tos-cn-i-k3u1fbpfcp/7647fcd7b6954b42a887df5c05a47610~tplv-k3u1fbpfcp-watermark.image","is_gfw":0,"title":"谁手握账本？趣讲 ZK 的内存模型","brief_content":"Hi，这里是 HelloGitHub 推出的 HelloZooKeeper 系列，免费开源、有趣、入门级的 ZooKeeper 教程，面向有编程基础的新手。 本系列教程是从零开始讲解 ZooKeeper，内容从最基础的安装使用到背后原理和源码的讲解，整个系列希望通过有趣文字、诙…","is_english":0,"is_original":1,"user_index":9.192228055750716,"original_type":0,"original_author":"","content":"","ctime":"1614215042","mtime":"1614216222","rtime":"1614216222","draft_id":"6932650601751232526","view_count":606,"collect_count":0,"digg_count":5,"comment_count":1,"hot_index":36,"is_hot":0,"rank_index":0.03225092,"status":2,"verify_status":1,"audit_status":2,"mark_content":""},"author_user_info":{"user_id":"1574156384091320","user_name":"HelloGitHub","company":"公众号：HelloGitHub","job_title":"","avatar_large":"https://user-gold-cdn.xitu.io/2019/3/28/169c31b06dcd6e90?w=200\u0026h=200\u0026f=png\u0026s=7767","level":5,"description":"分享 GitHub 上有趣、入门级的开源项目（目前在重构官网，需要前端和设计师）","followee_count":31,"follower_count":9459,"post_article_count":281,"digg_article_count":262,"got_digg_count":7602,"got_view_count":486285,"post_shortmsg_count":784,"digg_shortmsg_count":216,"isfollowed":false,"favorable_author":1,"power":11619,"study_point":0,"university":{"university_id":"0","name":"","logo":""},"major":{"major_id":"0","parent_id":"0","name":""},"student_status":0,"select_event_count":0,"select_online_course_count":0,"identity":0,"is_select_annual":false,"select_annual_rank":0,"annual_list_type":0},"category":{"category_id":"6809637769959178254","category_name":"后端","category_url":"backend","rank":1,"ctime":1457483880,"mtime":1432503193,"show_type":3},"tags":[{"id":2546553,"tag_id":"6809640445233070094","tag_name":"Java","color":"#DD2C2A","icon":"https://lc-gold-cdn.xitu.io/f8ee3cd45f949a546263.png","back_ground":"","show_navi":0,"ctime":1436156295,"mtime":1614668058,"id_type":9,"tag_alias":"","post_article_count":59615,"concern_user_count":275302},{"id":2546805,"tag_id":"6809640791858741262","tag_name":"ZooKeeper","color":"#000000","icon":"https://lc-gold-cdn.xitu.io/2c7a586393d0ec9c8525.png","back_ground":"","show_navi":0,"ctime":1488865643,"mtime":1614666769,"id_type":9,"tag_alias":"","post_article_count":943,"concern_user_count":15285}],"user_interact":{"id":6933000523528273933,"omitempty":2,"user_id":0,"is_digg":false,"is_follow":false,"is_collect":false},"org":{"org_info":null,"org_user":null,"is_followed":false}},{"article_id":"6932250233950699528","article_info":{"article_id":"6932250233950699528","user_id":"1574156384091320","category_id":"6809637771511070734","tag_ids":[6809640375880253447,6809641083107016712],"visible_level":0,"link_url":"","cover_image":"https://p6-juejin.byteimg.com/tos-cn-i-k3u1fbpfcp/40f89981825c49ef9b896eadd3d9fc4f~tplv-k3u1fbpfcp-watermark.image","is_gfw":0,"title":"上天的源码要不要——GitHub 热点速览 v.21.08","brief_content":"前几天，“机智号” 所用的飞行软件框架 F´ 被 NASA 开源了，想看 F´ 这个嵌入式的代码不妨考虑下 Sourcetrail 这个神器，刚好它支持 C++，能让你快速 Get 这个飞行框架的代码体系。说到阅读源码学习，本周热点之一的 ziglings 便是一个让你通过修复…","is_english":0,"is_original":1,"user_index":9.189982195847914,"original_type":0,"original_author":"","content":"","ctime":"1614040851","mtime":"1614041601","rtime":"1614041601","draft_id":"6931926243491348494","view_count":2552,"collect_count":0,"digg_count":9,"comment_count":0,"hot_index":136,"is_hot":0,"rank_index":0.06331863,"status":2,"verify_status":1,"audit_status":2,"mark_content":""},"author_user_info":{"user_id":"1574156384091320","user_name":"HelloGitHub","company":"公众号：HelloGitHub","job_title":"","avatar_large":"https://user-gold-cdn.xitu.io/2019/3/28/169c31b06dcd6e90?w=200\u0026h=200\u0026f=png\u0026s=7767","level":5,"description":"分享 GitHub 上有趣、入门级的开源项目（目前在重构官网，需要前端和设计师）","followee_count":31,"follower_count":9459,"post_article_count":281,"digg_article_count":262,"got_digg_count":7602,"got_view_count":486285,"post_shortmsg_count":784,"digg_shortmsg_count":216,"isfollowed":false,"favorable_author":1,"power":11619,"study_point":0,"university":{"university_id":"0","name":"","logo":""},"major":{"major_id":"0","parent_id":"0","name":""},"student_status":0,"select_event_count":0,"select_online_course_count":0,"identity":0,"is_select_annual":false,"select_annual_rank":0,"annual_list_type":0},"category":{"category_id":"6809637771511070734","category_name":"开发工具","category_url":"freebie","rank":6,"ctime":1457483920,"mtime":1432503202,"show_type":3},"tags":[{"id":2546502,"tag_id":"6809640375880253447","tag_name":"GitHub","color":"#616161","icon":"https://lc-gold-cdn.xitu.io/0d614af263aa63aa6a77.png","back_ground":"","show_navi":0,"ctime":1432234558,"mtime":1614668267,"id_type":9,"tag_alias":"","post_article_count":9281,"concern_user_count":364107},{"id":2547014,"tag_id":"6809641083107016712","tag_name":"开源库资讯","color":"","icon":"https://user-gold-cdn.xitu.io/152713444205566dc0b9fb8a213cba8cf32db3de6931b.jpg","back_ground":"","show_navi":0,"ctime":1514876317,"mtime":1614648180,"id_type":9,"tag_alias":"","post_article_count":454,"concern_user_count":4261}],"user_interact":{"id":6932250233950699528,"omitempty":2,"user_id":0,"is_digg":false,"is_follow":false,"is_collect":false},"org":{"org_info":null,"org_user":null,"is_followed":false}},{"article_id":"6931880575242338311","article_info":{"article_id":"6931880575242338311","user_id":"1574156384091320","category_id":"6809637769959178254","tag_ids":[6809640447497994253,6809641196063817742],"visible_level":0,"link_url":"","cover_image":"https://p6-juejin.byteimg.com/tos-cn-i-k3u1fbpfcp/d96630d6100f4127b3af57927d371dc9~tplv-k3u1fbpfcp-watermark.image","is_gfw":0,"title":"刚学会 C++ 的小白用这个开源框架，做个 RPC 服务要多久？","brief_content":"HelloGitHub 推出的《讲解开源项目》系列，本期介绍基于 C++ 的 RPC 开源框架——rest_rpc，一个让小白也可以快速（10 分钟）开发 RPC 服务的框架。 rest_rpc 是一个高性能、易用、跨平台、header only 的 C++11 RPC 库，它…","is_english":0,"is_original":1,"user_index":9.19397950789932,"original_type":0,"original_author":"","content":"","ctime":"1613954279","mtime":"1613954418","rtime":"1613954418","draft_id":"6931521236920958989","view_count":701,"collect_count":0,"digg_count":7,"comment_count":0,"hot_index":42,"is_hot":0,"rank_index":0.01841834,"status":2,"verify_status":1,"audit_status":2,"mark_content":""},"author_user_info":{"user_id":"1574156384091320","user_name":"HelloGitHub","company":"公众号：HelloGitHub","job_title":"","avatar_large":"https://user-gold-cdn.xitu.io/2019/3/28/169c31b06dcd6e90?w=200\u0026h=200\u0026f=png\u0026s=7767","level":5,"description":"分享 GitHub 上有趣、入门级的开源项目（目前在重构官网，需要前端和设计师）","followee_count":31,"follower_count":9459,"post_article_count":281,"digg_article_count":262,"got_digg_count":7602,"got_view_count":486285,"post_shortmsg_count":784,"digg_shortmsg_count":216,"isfollowed":false,"favorable_author":1,"power":11619,"study_point":0,"university":{"university_id":"0","name":"","logo":""},"major":{"major_id":"0","parent_id":"0","name":""},"student_status":0,"select_event_count":0,"select_online_course_count":0,"identity":0,"is_select_annual":false,"select_annual_rank":0,"annual_list_type":0},"category":{"category_id":"6809637769959178254","category_name":"后端","category_url":"backend","rank":1,"ctime":1457483880,"mtime":1432503193,"show_type":3},"tags":[{"id":2546555,"tag_id":"6809640447497994253","tag_name":"C++","color":"#004383","icon":"https://lc-gold-cdn.xitu.io/664bb393774ec8ebb7cc.png","back_ground":"","show_navi":0,"ctime":1436156318,"mtime":1614667095,"id_type":9,"tag_alias":"","post_article_count":3506,"concern_user_count":52245},{"id":2547096,"tag_id":"6809641196063817742","tag_name":"RPC","color":"","icon":"https://user-gold-cdn.xitu.io/1557022803782dde4d8f9e4503b5dfdfe90ff46abb019.jpg","back_ground":"","show_navi":0,"ctime":1556994005,"mtime":1614615661,"id_type":9,"tag_alias":"","post_article_count":149,"concern_user_count":1329}],"user_interact":{"id":6931880575242338311,"omitempty":2,"user_id":0,"is_digg":false,"is_follow":false,"is_collect":false},"org":{"org_info":null,"org_user":null,"is_followed":false}},{"article_id":"6930386249605709832","article_info":{"article_id":"6930386249605709832","user_id":"1574156384091320","category_id":"6809637767543259144","tag_ids":[6809640398105870343,6809640467731316749],"visible_level":0,"link_url":"","cover_image":"https://p9-juejin.byteimg.com/tos-cn-i-k3u1fbpfcp/e2209a16e6754b2c8432e84e199d2f1f~tplv-k3u1fbpfcp-watermark.image","is_gfw":0,"title":"JavaScript 的 7 种设计模式｜牛气冲天新年征文","brief_content":"当启动一个新的项目时候，我们不应该马上开始编程。而是首先应该定义项目的目的和范围，然后列出其功能或规格。如果你已经开始编程或者正在从事一个复杂的项目，则应该选择一个最适合你项目的设计模式。 在软件工程中，设计模式是针对软件设计中常见问题的可重用解决方案。设计模式也是经验丰富的开…","is_english":0,"is_original":1,"user_index":0,"original_type":0,"original_author":"","content":"","ctime":"1613607614","mtime":"1613607903","rtime":"1613607723","draft_id":"6930261918838063118","view_count":4830,"collect_count":0,"digg_count":52,"comment_count":2,"hot_index":295,"is_hot":0,"rank_index":0.05805159,"status":2,"verify_status":1,"audit_status":2,"mark_content":""},"author_user_info":{"user_id":"1574156384091320","user_name":"HelloGitHub","company":"公众号：HelloGitHub","job_title":"","avatar_large":"https://user-gold-cdn.xitu.io/2019/3/28/169c31b06dcd6e90?w=200\u0026h=200\u0026f=png\u0026s=7767","level":5,"description":"分享 GitHub 上有趣、入门级的开源项目（目前在重构官网，需要前端和设计师）","followee_count":31,"follower_count":9459,"post_article_count":281,"digg_article_count":262,"got_digg_count":7602,"got_view_count":486285,"post_shortmsg_count":784,"digg_shortmsg_count":216,"isfollowed":false,"favorable_author":1,"power":11619,"study_point":0,"university":{"university_id":"0","name":"","logo":""},"major":{"major_id":"0","parent_id":"0","name":""},"student_status":0,"select_event_count":0,"select_online_course_count":0,"identity":0,"is_select_annual":false,"select_annual_rank":0,"annual_list_type":0},"category":{"category_id":"6809637767543259144","category_name":"前端","category_url":"frontend","rank":2,"ctime":1457483942,"mtime":1432503190,"show_type":3},"tags":[{"id":2546519,"tag_id":"6809640398105870343","tag_name":"JavaScript","color":"#616161","icon":"https://lc-gold-cdn.xitu.io/5d70fd6af940df373834.png","back_ground":"","show_navi":0,"ctime":1435884803,"mtime":1614668493,"id_type":9,"tag_alias":"","post_article_count":51244,"concern_user_count":374934},{"id":2546570,"tag_id":"6809640467731316749","tag_name":"设计模式","color":"#616161","icon":"https://lc-gold-cdn.xitu.io/95e6729d56b35272b0d6.png","back_ground":"","show_navi":0,"ctime":1437074032,"mtime":1614668423,"id_type":9,"tag_alias":"","post_article_count":5925,"concern_user_count":245872}],"user_interact":{"id":6930386249605709832,"omitempty":2,"user_id":0,"is_digg":false,"is_follow":false,"is_collect":false},"org":{"org_info":null,"org_user":null,"is_followed":false}},{"article_id":"6929662764424101896","article_info":{"article_id":"6929662764424101896","user_id":"1574156384091320","category_id":"6809637772874219534","tag_ids":[6809640375880253447,6809641083107016712],"visible_level":0,"link_url":"","cover_image":"","is_gfw":0,"title":" 编程方式建视频——GitHub 热点速览 v.21.07","brief_content":"假期过半，大家过得如何，吃好喝好了吗？GitHub 很好！本周的 GitHub Trending 又上爆款项目——github1s 装完之后，一秒 GitHub 源码从浏览器变到你的 VS Code 里。此外，remotion 这个让你用 React 编程就能做出有意思视频的项…","is_english":0,"is_original":1,"user_index":9.17570399388442,"original_type":0,"original_author":"","content":"","ctime":"1613438069","mtime":"1613438418","rtime":"1613438418","draft_id":"6929495984242163726","view_count":575,"collect_count":0,"digg_count":6,"comment_count":0,"hot_index":34,"is_hot":0,"rank_index":0.00684818,"status":2,"verify_status":1,"audit_status":2,"mark_content":""},"author_user_info":{"user_id":"1574156384091320","user_name":"HelloGitHub","company":"公众号：HelloGitHub","job_title":"","avatar_large":"https://user-gold-cdn.xitu.io/2019/3/28/169c31b06dcd6e90?w=200\u0026h=200\u0026f=png\u0026s=7767","level":5,"description":"分享 GitHub 上有趣、入门级的开源项目（目前在重构官网，需要前端和设计师）","followee_count":31,"follower_count":9459,"post_article_count":281,"digg_article_count":262,"got_digg_count":7602,"got_view_count":486285,"post_shortmsg_count":784,"digg_shortmsg_count":216,"isfollowed":false,"favorable_author":1,"power":11619,"study_point":0,"university":{"university_id":"0","name":"","logo":""},"major":{"major_id":"0","parent_id":"0","name":""},"student_status":0,"select_event_count":0,"select_online_course_count":0,"identity":0,"is_select_annual":false,"select_annual_rank":0,"annual_list_type":0},"category":{"category_id":"6809637772874219534","category_name":"阅读","category_url":"article","rank":8,"ctime":1457483895,"mtime":1432503208,"show_type":3},"tags":[{"id":2546502,"tag_id":"6809640375880253447","tag_name":"GitHub","color":"#616161","icon":"https://lc-gold-cdn.xitu.io/0d614af263aa63aa6a77.png","back_ground":"","show_navi":0,"ctime":1432234558,"mtime":1614668267,"id_type":9,"tag_alias":"","post_article_count":9281,"concern_user_count":364107},{"id":2547014,"tag_id":"6809641083107016712","tag_name":"开源库资讯","color":"","icon":"https://user-gold-cdn.xitu.io/152713444205566dc0b9fb8a213cba8cf32db3de6931b.jpg","back_ground":"","show_navi":0,"ctime":1514876317,"mtime":1614648180,"id_type":9,"tag_alias":"","post_article_count":454,"concern_user_count":4261}],"user_interact":{"id":6929662764424101896,"omitempty":2,"user_id":0,"is_digg":false,"is_follow":false,"is_collect":false},"org":{"org_info":null,"org_user":null,"is_followed":false}},{"article_id":"6927802732560678926","article_info":{"article_id":"6927802732560678926","user_id":"1574156384091320","category_id":"6809637772874219534","tag_ids":[6809640536249466893,6809640482725953550],"visible_level":0,"link_url":"","cover_image":"https://p6-juejin.byteimg.com/tos-cn-i-k3u1fbpfcp/dcbf28c1759a41c7852b7857af72b286~tplv-k3u1fbpfcp-watermark.image","is_gfw":0,"title":"你专属的程序员春节“大礼包”","brief_content":"我做梦的时候，都梦到自己是个顶级黑客拯救世界。虽然我知道只是个梦，但我这颗拯救和改变世界的心躁动地无处安放。那么就在游戏和影视作品中过把瘾吧！ 你春节放了几天？接下来 HelloGitHub 推荐的程序员游戏和影视作品，一定能让你过个不无聊的假期。 什么你假期要学习？低调，我文…","is_english":0,"is_original":1,"user_index":9.17114924899741,"original_type":0,"original_author":"","content":"","ctime":"1613004840","mtime":"1613004978","rtime":"1613004978","draft_id":"6927100676702994439","view_count":709,"collect_count":0,"digg_count":2,"comment_count":0,"hot_index":37,"is_hot":0,"rank_index":0.00463436,"status":2,"verify_status":1,"audit_status":2,"mark_content":""},"author_user_info":{"user_id":"1574156384091320","user_name":"HelloGitHub","company":"公众号：HelloGitHub","job_title":"","avatar_large":"https://user-gold-cdn.xitu.io/2019/3/28/169c31b06dcd6e90?w=200\u0026h=200\u0026f=png\u0026s=7767","level":5,"description":"分享 GitHub 上有趣、入门级的开源项目（目前在重构官网，需要前端和设计师）","followee_count":31,"follower_count":9459,"post_article_count":281,"digg_article_count":262,"got_digg_count":7602,"got_view_count":486285,"post_shortmsg_count":784,"digg_shortmsg_count":216,"isfollowed":false,"favorable_author":1,"power":11619,"study_point":0,"university":{"university_id":"0","name":"","logo":""},"major":{"major_id":"0","parent_id":"0","name":""},"student_status":0,"select_event_count":0,"select_online_course_count":0,"identity":0,"is_select_annual":false,"select_annual_rank":0,"annual_list_type":0},"category":{"category_id":"6809637772874219534","category_name":"阅读","category_url":"article","rank":8,"ctime":1457483895,"mtime":1432503208,"show_type":3},"tags":[{"id":2546620,"tag_id":"6809640536249466893","tag_name":"游戏","color":"#8bc052","icon":"https://lc-gold-cdn.xitu.io/94311340ee4544f1c71b.png","back_ground":"","show_navi":0,"ctime":1441225319,"mtime":1614667402,"id_type":9,"tag_alias":"","post_article_count":4697,"concern_user_count":31709},{"id":2546581,"tag_id":"6809640482725953550","tag_name":"程序员","color":"#616161","icon":"https://lc-gold-cdn.xitu.io/63baec1130bde0284e98.png","back_ground":"","show_navi":0,"ctime":1438712834,"mtime":1614668062,"id_type":9,"tag_alias":"","post_article_count":12527,"concern_user_count":259776}],"user_interact":{"id":6927802732560678926,"omitempty":2,"user_id":0,"is_digg":false,"is_follow":false,"is_collect":false},"org":{"org_info":null,"org_user":null,"is_followed":false}},{"article_id":"6927436696304746509","article_info":{"article_id":"6927436696304746509","user_id":"1574156384091320","category_id":"6809637769959178254","tag_ids":[6809640445233070094,6809640791858741262],"visible_level":0,"link_url":"","cover_image":"https://p1-juejin.byteimg.com/tos-cn-i-k3u1fbpfcp/81f302d9756e499eab8ed530635b13ac~tplv-k3u1fbpfcp-watermark.image","is_gfw":0,"title":"揭秘井井有条的流水线（ZooKeeper 原理篇）","brief_content":"Hi，这里是 HelloGitHub 推出的 HelloZooKeeper 系列，免费开源、有趣、入门级的 ZooKeeper 教程，面向有编程基础的新手。 本系列教程是从零开始讲解 ZooKeeper，内容从最基础的安装使用到背后原理和源码的讲解，整个系列希望通过有趣文字、诙…","is_english":0,"is_original":1,"user_index":9.174284772921414,"original_type":0,"original_author":"","content":"","ctime":"1612919668","mtime":"1612920140","rtime":"1612920140","draft_id":"6927119043673456648","view_count":692,"collect_count":0,"digg_count":4,"comment_count":0,"hot_index":38,"is_hot":0,"rank_index":0.0044133,"status":2,"verify_status":1,"audit_status":2,"mark_content":""},"author_user_info":{"user_id":"1574156384091320","user_name":"HelloGitHub","company":"公众号：HelloGitHub","job_title":"","avatar_large":"https://user-gold-cdn.xitu.io/2019/3/28/169c31b06dcd6e90?w=200\u0026h=200\u0026f=png\u0026s=7767","level":5,"description":"分享 GitHub 上有趣、入门级的开源项目（目前在重构官网，需要前端和设计师）","followee_count":31,"follower_count":9459,"post_article_count":281,"digg_article_count":262,"got_digg_count":7602,"got_view_count":486285,"post_shortmsg_count":784,"digg_shortmsg_count":216,"isfollowed":false,"favorable_author":1,"power":11619,"study_point":0,"university":{"university_id":"0","name":"","logo":""},"major":{"major_id":"0","parent_id":"0","name":""},"student_status":0,"select_event_count":0,"select_online_course_count":0,"identity":0,"is_select_annual":false,"select_annual_rank":0,"annual_list_type":0},"category":{"category_id":"6809637769959178254","category_name":"后端","category_url":"backend","rank":1,"ctime":1457483880,"mtime":1432503193,"show_type":3},"tags":[{"id":2546553,"tag_id":"6809640445233070094","tag_name":"Java","color":"#DD2C2A","icon":"https://lc-gold-cdn.xitu.io/f8ee3cd45f949a546263.png","back_ground":"","show_navi":0,"ctime":1436156295,"mtime":1614668058,"id_type":9,"tag_alias":"","post_article_count":59615,"concern_user_count":275302},{"id":2546805,"tag_id":"6809640791858741262","tag_name":"ZooKeeper","color":"#000000","icon":"https://lc-gold-cdn.xitu.io/2c7a586393d0ec9c8525.png","back_ground":"","show_navi":0,"ctime":1488865643,"mtime":1614666769,"id_type":9,"tag_alias":"","post_article_count":943,"concern_user_count":15285}],"user_interact":{"id":6927436696304746509,"omitempty":2,"user_id":0,"is_digg":false,"is_follow":false,"is_collect":false},"org":{"org_info":null,"org_user":null,"is_followed":false}}],"cursor":"10","count":281,"has_more":true}